{
    "count": 82, 
    "next": "http://swapi.dev/api/people/?page=2", 
    "previous": null, 
    "results": [
        {
            "name": "20:38", 
            "height": "172", 
            "mass": "77", 
            "films": [
                "http://swapi.dev/api/films/1/", 
                "http://swapi.dev/api/films/2/", 
                "http://swapi.dev/api/films/3/", 
                "http://swapi.dev/api/films/6/"
            ]
        }, 
        {
            "name": "20:38", 
            "height": "172", 
            "mass": "77", 
            "films": [
                "http://swapi.dev/api/films/1/", 
                "http://swapi.dev/api/films/2/", 
                "http://swapi.dev/api/films/3/", 
                "http://swapi.dev/api/films/6/"
            ]
        }, 
        {
            "name": "20:38", 
            "height": "172", 
            "mass": "77", 
            "films": [
                "http://swapi.dev/api/films/1/", 
                "http://swapi.dev/api/films/2/", 
                "http://swapi.dev/api/films/3/", 
                "http://swapi.dev/api/films/6/"
            ]
        }, 
        {
            "name": "20:38", 
            "height": "172", 
            "mass": "77", 
            "films": [
                "http://swapi.dev/api/films/1/", 
                "http://swapi.dev/api/films/2/", 
                "http://swapi.dev/api/films/3/", 
                "http://swapi.dev/api/films/6/"
            ]
        }, 
        
    ]
}
