{
    "count": 82, 
    "next": "http://swapi.dev/api/people/?page=2", 
    "previous": null, 
    "altele": [
        {
            "dataExamen": "2021-07-01" 
        }
    ], 
    "c1_quiz1": [
        {
            "Question1": "Cat fac 2+2?", 
            "Choice 1": "2",
            "Choice 2": "3",             
            "Choice 3": "5",
            "Choice 4": "4",
            "Choice 5": "8",
            "Answer":"4"
        }, 
        {
            "Question2": "Cat fac 10*10?", 
            "Choice 1": "100",
            "Choice 2": "3",              
            "Choice 3": "5",
            "Choice 4": "4",
            "Choice 5": "8",
            "Answer":"100"
        }, 
    ],
    
    
    "stats3": [
        {
            "epic": 50, 
            "liric": 50 
        }, 
        {
            "name": "Stats 3", 
            "probability": 20,
            "question_type": [
                "Roman interbelic", 
                "Opera Eminescu"
            ], 
            "past_5_years": "2"
        }, 
        {
            
            "name": "Stats 3", 
            "probability": 22,
            "question_type": [
                "Roman interbelic", 
                "Opera Eminescu"
            ], 
            "past_5_years": "2"
        }, 
        {
            
            "name": "Label 1", 
            "probability": 99,
            "question_type": [
                "Roman interbelic", 
                "Opera Eminescu"
            ], 
            "past_5_years": "2"
        }, 
        {
            
            "name": "Stats 3", 
            "probability": 5,
            "question_type": [
                "Roman interbelic", 
                "Opera Eminescu"
            ], 
            "past_5_years": "2"
        }
    ]
    
    
}
