{
    "count": 82, 
    "next": "http://swapi.dev/api/people/?page=2", 
    "previous": null, 
    "teachersData": [
        {
            "id": 1, 
            "first_name": "Mihnea",
            "last_name": "Moldoveanu",
            "age": 24,
            "description": "lorem ipsum description",
            "teaches":"Math, physics and chemistry",
            "experience":4,
            "phone":"+40729029010",
            "city":"Bucharest",
            "location":"Domiciliul meu sau al tau",
            "online":"Disponibil si online",
            "price": 120
        }, 
        
    ],
    
    
}
